<svg width="24" height="24" viewBox="0 0 24 24" fill="none" xmlns="http://www.w3.org/2000/svg">
<path d="M5.31914 18.1397L18.1397 5.31913C18.6554 4.8034 18.6554 3.9669 18.1397 3.45082L16.9816 2.2926L16.2343 1.54537L15.0758 0.386799C14.56 -0.128933 13.7235 -0.128933 13.2074 0.386799L0.386799 13.2074C-0.128933 13.7232 -0.128933 14.5597 0.386799 15.0758L3.45076 18.1397C3.9669 18.6555 4.803 18.6555 5.31914 18.1397Z" fill="#4070CC"/>
<path d="M17.8568 1.41678L17.1095 0.669556L16.634 1.14505L17.3813 1.89228L17.8568 1.41678Z" fill="#4070CC"/>
<path d="M23.4698 20.9094L17.3269 14.7665L14.7665 17.3269L20.9094 23.4698C21.6164 24.1768 22.7628 24.1768 23.4698 23.4698C24.1767 22.7628 24.1767 21.6164 23.4698 20.9094Z" fill="#4070CC"/>
<path d="M15.6568 14.9095L14.5961 13.8488C13.8051 13.0578 12.3234 13.2522 11.2933 14.2823L5.28823 20.2877C4.67007 20.9059 3.66464 20.9059 3.04648 20.2877L2.13751 19.3787C1.60368 18.8449 1.53324 18.023 1.9216 17.4105L1.16359 16.6525C0.369456 17.6875 0.443413 19.1792 1.39021 20.1264L2.29918 21.0353C3.32929 22.0654 5.00535 22.0654 6.03546 21.0353L12.0405 15.0303C12.701 14.3698 13.5236 14.2716 13.8488 14.5967L14.9095 15.6574L15.6568 14.9095Z" fill="#4070CC"/>
</svg>
