<svg width="37" height="37" viewBox="0 0 37 37" fill="none" xmlns="http://www.w3.org/2000/svg">
<g clip-path="url(#clip0)">
<path d="M24.5316 9.72633L18.4993 15.7586L12.4671 9.72633C11.71 8.96926 10.482 8.96891 9.7246 9.72633C8.96718 10.4837 8.96718 11.7114 9.7246 12.4688L15.7569 18.5011L9.7253 24.5326C8.96824 25.2897 8.96824 26.5173 9.72566 27.2747C10.4831 28.0321 11.71 28.0321 12.4674 27.2747L18.4997 21.2425L24.5319 27.2747C25.289 28.0318 26.517 28.0321 27.2744 27.2747C28.0318 26.5173 28.0318 25.2897 27.2744 24.5323L21.2422 18.5L27.2744 12.4677C28.0318 11.7103 28.0318 10.4827 27.2748 9.72562C26.5177 8.96856 25.289 8.96891 24.5316 9.72633Z" fill="white"/>
</g>
<defs>
<clipPath id="clip0">
<rect x="0.950928" y="18.5" width="24.8182" height="24.8182" transform="rotate(-45 0.950928 18.5)" fill="white"/>
</clipPath>
</defs>
</svg>
