<svg width="13" height="13" viewBox="0 0 13 13" fill="none" xmlns="http://www.w3.org/2000/svg">
<g clip-path="url(#clip0)">
<path d="M5.48435 1.01631L5.48435 5.48487L1.01578 5.48487C0.454964 5.48487 -3.08621e-07 5.93957 -2.84095e-07 6.50065C-2.5957e-07 7.06173 0.454704 7.51644 1.01578 7.51644L5.48435 7.51644L5.48435 11.9845C5.48435 12.5453 5.93905 13 6.50013 13C7.06121 13 7.51565 12.5456 7.51565 11.9845L7.51565 7.51591L11.9842 7.51591C12.545 7.51591 13 7.06121 13 6.50013C13 5.93905 12.5453 5.48435 11.9842 5.48435L7.51565 5.48435L7.51565 1.01578C7.51565 0.454705 7.06095 1.5987e-06 6.50013 1.62322e-06C5.93931 1.64773e-06 5.48435 0.455227 5.48435 1.01631Z" fill="#343434"/>
</g>
<defs>
<clipPath id="clip0">
<rect y="13" width="13" height="13" transform="rotate(-90 0 13)" fill="white"/>
</clipPath>
</defs>
</svg>
