<svg width="25" height="24" viewBox="0 0 25 24" fill="none" xmlns="http://www.w3.org/2000/svg">
<g clip-path="url(#clip0)">
<path d="M12.3219 11.5609C13.9763 11.5609 15.4089 10.9912 16.5794 9.86733C17.75 8.74362 18.3434 7.36868 18.3434 5.78025C18.3434 4.19237 17.75 2.81725 16.5792 1.69317C15.4085 0.569639 13.9761 0 12.3219 0C10.6672 0 9.235 0.569639 8.06446 1.69335C6.89392 2.81707 6.30035 4.19218 6.30035 5.78025C6.30035 7.36868 6.89392 8.7438 8.06465 9.86751C9.23538 10.991 10.6678 11.5609 12.3219 11.5609Z" fill="#4070CC"/>
<path d="M22.8579 18.4547C22.8241 17.9871 22.7558 17.477 22.6553 16.9383C22.5538 16.3955 22.4232 15.8825 22.2668 15.4136C22.1052 14.9289 21.8855 14.4502 21.6139 13.9916C21.332 13.5155 21.0009 13.1009 20.6293 12.7598C20.2408 12.403 19.7651 12.116 19.215 11.9067C18.6668 11.6985 18.0593 11.5931 17.4095 11.5931C17.1543 11.5931 16.9075 11.6936 16.4309 11.9915C16.1375 12.1752 15.7944 12.3876 15.4114 12.6225C15.0839 12.8228 14.6402 13.0105 14.0923 13.1804C13.5576 13.3465 13.0148 13.4307 12.479 13.4307C11.9432 13.4307 11.4006 13.3465 10.8654 13.1804C10.318 13.0107 9.87434 12.823 9.54723 12.6227C9.16786 12.39 8.82454 12.1775 8.5268 11.9913C8.05073 11.6934 7.80373 11.5929 7.54852 11.5929C6.8985 11.5929 6.2912 11.6985 5.74322 11.9069C5.19352 12.1158 4.71764 12.4028 4.32873 12.76C3.95737 13.1013 3.62606 13.5157 3.34454 13.9916C3.07312 14.4502 2.85339 14.9287 2.69165 15.4137C2.53544 15.8827 2.40479 16.3955 2.30331 16.9383C2.2028 17.4762 2.13451 17.9865 2.10075 18.4553C2.06757 18.9145 2.05078 19.3911 2.05078 19.8725C2.05078 21.1253 2.46563 22.1395 3.28369 22.8875C4.09164 23.6256 5.16071 24.0001 6.46076 24.0001H18.4984C19.7985 24.0001 20.8672 23.6258 21.6753 22.8875C22.4936 22.1401 22.9084 21.1257 22.9084 19.8723C22.9082 19.3888 22.8912 18.9118 22.8579 18.4547Z" fill="#4070CC"/>
</g>
<defs>
<clipPath id="clip0">
<rect width="25" height="24" fill="white"/>
</clipPath>
</defs>
</svg>
