<svg width="34" height="32" viewBox="0 0 34 32" fill="none" xmlns="http://www.w3.org/2000/svg">
<path d="M34 12C34 10.88 33.32 9.91999 32.47 9.27999L17 0.799988L1.53 9.27999C0.68 9.91999 0 10.88 0 12V28C0 29.76 1.53 31.2 3.4 31.2H30.6C32.47 31.2 34 29.76 34 28V12ZM17 20L2.89 11.68L17 3.99999L31.11 11.68L17 20Z" fill="#4070CC"/>
</svg>
