<svg width="31" height="31" viewBox="0 0 31 31" fill="none" xmlns="http://www.w3.org/2000/svg">
<g clip-path="url(#clip0)">
<path d="M26.4342 16.4855V26.2258C26.4342 27.0941 25.7295 27.7988 24.8612 27.7988H6.13882C5.27049 27.7988 4.56577 27.0941 4.56577 26.2258V16.4855C4.56577 15.9428 4.84499 15.4378 5.3051 15.1515L14.6655 9.3053C15.1752 8.98676 15.8233 8.98676 16.3321 9.3053L25.6926 15.1515C26.1542 15.4378 26.4342 15.942 26.4342 16.4855ZM30.2615 12.1376L16.3345 3.4402C15.8248 3.12166 15.1775 3.12166 14.6679 3.4402L0.739338 12.1376C0.00236621 12.5977 -0.221006 13.5682 0.238323 14.3052C0.697652 15.043 1.66665 15.2679 2.40598 14.807L15.5 6.62876L28.5925 14.8054C28.852 14.9675 29.1391 15.0446 29.4254 15.0446C29.95 15.0446 30.462 14.7826 30.7601 14.3044C31.221 13.5667 30.9969 12.5977 30.2615 12.1376Z" fill="#4070CC"/>
</g>
<defs>
<clipPath id="clip0">
<rect width="31" height="31" fill="white"/>
</clipPath>
</defs>
</svg>
