<svg width="32" height="32" viewBox="0 0 32 32" fill="none" xmlns="http://www.w3.org/2000/svg">
<g clip-path="url(#clip0)">
<path d="M3.64069 17.1204C3.44526 15.4268 3.60812 13.7917 4.05108 12.2804C5.52329 7.25798 10.1418 3.56444 15.6203 3.4993V0.216155C15.6203 0.0337576 15.8483 -0.0639551 15.9981 0.046786L22.7533 5.01059C22.864 5.09528 22.864 5.26464 22.7533 5.34281L16.0046 10.3066C15.8483 10.4174 15.6268 10.3196 15.6268 10.1372V6.86062C12.0244 6.91925 8.94975 9.14058 7.62737 12.2804C7.12578 13.466 6.87172 14.7753 6.94338 16.1498C7.04109 18.0389 7.75114 19.7782 8.87158 21.1853C9.47088 21.9344 9.32757 23.0288 8.55238 23.5955C7.81628 24.1362 6.78704 23.9864 6.2203 23.2698C4.83278 21.5371 3.90777 19.4265 3.64069 17.1204ZM23.1441 10.8147C24.2711 12.2153 24.9811 13.9611 25.0723 15.8502C25.144 17.2312 24.8834 18.5405 24.3884 19.7196C23.066 22.8594 19.9913 25.0873 16.3889 25.1394V21.8628C16.3889 21.6804 16.1609 21.5827 16.0111 21.6934L9.25591 26.6572C9.14517 26.7419 9.14517 26.9113 9.25591 26.9894L16.0046 31.9532C16.1609 32.064 16.3824 31.9663 16.3824 31.7839V28.5007C21.8609 28.4421 26.4859 24.7486 27.9516 19.7196C28.3946 18.2083 28.5509 16.5733 28.362 14.8796C28.1014 12.5736 27.1764 10.463 25.7889 8.73019C25.2157 8.01363 24.1929 7.8638 23.4568 8.40448C22.6882 8.97121 22.5448 10.0656 23.1441 10.8147Z" fill="#4070CC"/>
</g>
<defs>
<clipPath id="clip0">
<rect width="32" height="32" fill="white"/>
</clipPath>
</defs>
</svg>
