<svg width="36" height="36" viewBox="0 0 36 36" fill="none" xmlns="http://www.w3.org/2000/svg">
<path d="M10.8 28.8C8.82 28.8 7.2 30.42 7.2 32.4C7.2 34.38 8.82 36 10.8 36C12.78 36 14.4 34.38 14.4 32.4C14.4 30.42 12.78 28.8 10.8 28.8ZM0 0V3.6H3.6L10.08 17.28L7.56 21.6C7.38 22.14 7.2 22.86 7.2 23.4C7.2 25.38 8.82 27 10.8 27H32.4V23.4H11.52C11.34 23.4 11.16 23.22 11.16 23.04V22.8599L12.78 19.7999H26.1C27.54 19.7999 28.62 19.0799 29.16 17.9999L35.64 6.3C36 5.94 36 5.76 36 5.4C36 4.32 35.28 3.6 34.2 3.6H7.56L5.94 0H0ZM28.8 28.8C26.82 28.8 25.2 30.42 25.2 32.4C25.2 34.38 26.82 36 28.8 36C30.78 36 32.4 34.38 32.4 32.4C32.4 30.42 30.78 28.8 28.8 28.8Z" fill="#4070CC" fill-opacity="0.35"/>
</svg>
